Forwarding from 127.0.0.1:9090 -> 9090
Handling connection for 9090
E0210 23:43:40.758733    3441 portforward.go:178] lost connection to pod
Forwarding from 127.0.0.1:9090 -> 9090
Handling connection for 9090
Handling connection for 9090
E0210 23:46:30.536385    3538 portforward.go:178] lost connection to pod
Forwarding from 127.0.0.1:9090 -> 9090
E0211 00:28:03.500895    4685 portforward.go:178] lost connection to pod
